<DataFile name="000000c3">
  <protocol end_timestamp="1453215996.8382082" name="tag_generated" outfile="/home/kyager/BNL/MachineLearning/synthetic/data/014267be_varied_sm/analysis/results/000000c3.xml" output_dir="/home/kyager/BNL/MachineLearning/synthetic/data/014267be_varied_sm/analysis/results" runtime="0.08053398132324219" save_timestamp="1453215996.8382583" start_timestamp="1453215996.7576742">
    <result name="sample.lattice.lamellar" value="True"/>
    <result name="features.other.background" value="True"/>
    <result name="image.general.structure factor" value="True"/>
    <result name="experiment.measurement.TSAXS" value="True"/>
    <result name="features.variations.higher orders: 3" value="True"/>
    <result name="instrumental.detector.Conceptual256" value="True"/>
    <result name="features.variations.higher orders: 6" value="True"/>
    <result name="features.main.ring: isotropic" value="True"/>
    <result name="features.variations.ring: width: broad" value="True"/>
    <result name="image.measured.sample" value="True"/>
    <result name="instrumental.beamstop.linear beamstop" value="True"/>
    <result name="features.other.high background" value="True"/>
    <result name="image.general.strong scattering" value="True"/>
    <result name="sample.lattice.hexagonal" value="True"/>
    <result name="features.variations.many rings" value="True"/>
  </protocol>
  <protocol end_timestamp="1453215996.8384073" name="calibration_generated" outfile="/home/kyager/BNL/MachineLearning/synthetic/data/014267be_varied_sm/analysis/results/000000c3.xml" output_dir="/home/kyager/BNL/MachineLearning/synthetic/data/014267be_varied_sm/analysis/results" runtime="36.11164999008179" save_timestamp="1453215996.838543" start_timestamp="1453215960.7267573">
    <result name="distance_m" value="0.594375"/>
    <result name="pixel_um" value="75.0"/>
    <result name="image_width" value="256"/>
    <result name="image_height" value="256"/>
    <result name="x0" value="14.287266262655312"/>
    <result name="dq" value="0.000569018354057"/>
    <result name="k_Ainv" value="4.50947048282922"/>
    <result name="wavelength_A" value="1.3933310642799788"/>
    <result name="y0" value="217.80449526053002"/>
    <result name="energy_keV" value="8.898399999999999"/>
  </protocol>
</DataFile>
