<DataFile name="00000071">
  <protocol end_timestamp="1453215970.7888246" name="tag_generated" outfile="/home/kyager/BNL/MachineLearning/synthetic/data/014267be_varied_sm/analysis/results/00000071.xml" output_dir="/home/kyager/BNL/MachineLearning/synthetic/data/014267be_varied_sm/analysis/results" runtime="0.005442142486572266" save_timestamp="1453215970.788871" start_timestamp="1453215970.7833824">
    <result name="instrumental.detector.Conceptual256" value="True"/>
    <result name="image.measured.sample" value="True"/>
    <result name="instrumental.beamstop.linear beamstop" value="True"/>
    <result name="experiment.measurement.TSAXS" value="True"/>
  </protocol>
  <protocol end_timestamp="1453215970.7889714" name="calibration_generated" outfile="/home/kyager/BNL/MachineLearning/synthetic/data/014267be_varied_sm/analysis/results/00000071.xml" output_dir="/home/kyager/BNL/MachineLearning/synthetic/data/014267be_varied_sm/analysis/results" runtime="10.062214136123657" save_timestamp="1453215970.7890918" start_timestamp="1453215960.7267573">
    <result name="distance_m" value="0.594375"/>
    <result name="pixel_um" value="75.0"/>
    <result name="image_width" value="256"/>
    <result name="image_height" value="256"/>
    <result name="x0" value="14.287266262655312"/>
    <result name="dq" value="0.000569018354057"/>
    <result name="k_Ainv" value="4.50947048282922"/>
    <result name="wavelength_A" value="1.3933310642799788"/>
    <result name="y0" value="217.80449526053002"/>
    <result name="energy_keV" value="8.898399999999999"/>
  </protocol>
</DataFile>
