<DataFile name="00000028">
  <protocol end_timestamp="1453215964.5295572" name="tag_generated" outfile="/home/kyager/BNL/MachineLearning/synthetic/data/014267be_varied_sm/analysis/results/00000028.xml" output_dir="/home/kyager/BNL/MachineLearning/synthetic/data/014267be_varied_sm/analysis/results" runtime="0.011778593063354492" save_timestamp="1453215964.5296032" start_timestamp="1453215964.5177786">
    <result name="features.variations.higher orders: 5" value="True"/>
    <result name="features.variations.ring: width: intermediate" value="True"/>
    <result name="features.main.ring: isotropic" value="True"/>
    <result name="image.general.structure factor" value="True"/>
    <result name="image.measured.sample" value="True"/>
    <result name="instrumental.beamstop.linear beamstop" value="True"/>
    <result name="experiment.measurement.TSAXS" value="True"/>
    <result name="image.general.strong scattering" value="True"/>
    <result name="instrumental.detector.Conceptual256" value="True"/>
    <result name="features.variations.many rings" value="True"/>
  </protocol>
  <protocol end_timestamp="1453215964.5297303" name="calibration_generated" outfile="/home/kyager/BNL/MachineLearning/synthetic/data/014267be_varied_sm/analysis/results/00000028.xml" output_dir="/home/kyager/BNL/MachineLearning/synthetic/data/014267be_varied_sm/analysis/results" runtime="3.8029730319976807" save_timestamp="1453215964.529868" start_timestamp="1453215960.7267573">
    <result name="distance_m" value="0.594375"/>
    <result name="pixel_um" value="75.0"/>
    <result name="image_width" value="256"/>
    <result name="image_height" value="256"/>
    <result name="x0" value="14.287266262655312"/>
    <result name="dq" value="0.000569018354057"/>
    <result name="k_Ainv" value="4.50947048282922"/>
    <result name="wavelength_A" value="1.3933310642799788"/>
    <result name="y0" value="217.80449526053002"/>
    <result name="energy_keV" value="8.898399999999999"/>
  </protocol>
</DataFile>
