<DataFile name="0000004c">
  <protocol end_timestamp="1453215967.47976" name="tag_generated" outfile="/home/kyager/BNL/MachineLearning/synthetic/data/014267be_varied_sm/analysis/results/0000004c.xml" output_dir="/home/kyager/BNL/MachineLearning/synthetic/data/014267be_varied_sm/analysis/results" runtime="0.1665666103363037" save_timestamp="1453215967.4798138" start_timestamp="1453215967.3131933">
    <result name="sample.lattice.lamellar" value="True"/>
    <result name="features.variations.higher orders: 1" value="True"/>
    <result name="image.general.structure factor" value="True"/>
    <result name="features.variations.ring: width: sharp" value="True"/>
    <result name="experiment.measurement.TSAXS" value="True"/>
    <result name="features.main.ring: spotted" value="True"/>
    <result name="instrumental.detector.Conceptual256" value="True"/>
    <result name="features.variations.higher orders: 6" value="True"/>
    <result name="sample.lattice.symmetry: 2" value="True"/>
    <result name="features.variations.ring: width: intermediate" value="True"/>
    <result name="features.main.ring: isotropic" value="True"/>
    <result name="image.measured.sample" value="True"/>
    <result name="instrumental.beamstop.linear beamstop" value="True"/>
    <result name="image.general.strong scattering" value="True"/>
    <result name="sample.type.large grains" value="True"/>
    <result name="features.variations.many rings" value="True"/>
  </protocol>
  <protocol end_timestamp="1453215967.479969" name="calibration_generated" outfile="/home/kyager/BNL/MachineLearning/synthetic/data/014267be_varied_sm/analysis/results/0000004c.xml" output_dir="/home/kyager/BNL/MachineLearning/synthetic/data/014267be_varied_sm/analysis/results" runtime="6.753211736679077" save_timestamp="1453215967.4801037" start_timestamp="1453215960.7267573">
    <result name="distance_m" value="0.594375"/>
    <result name="pixel_um" value="75.0"/>
    <result name="image_width" value="256"/>
    <result name="image_height" value="256"/>
    <result name="x0" value="14.287266262655312"/>
    <result name="dq" value="0.000569018354057"/>
    <result name="k_Ainv" value="4.50947048282922"/>
    <result name="wavelength_A" value="1.3933310642799788"/>
    <result name="y0" value="217.80449526053002"/>
    <result name="energy_keV" value="8.898399999999999"/>
  </protocol>
</DataFile>
