<DataFile name="00000063">
  <protocol end_timestamp="1453215969.8050196" name="tag_generated" outfile="/home/kyager/BNL/MachineLearning/synthetic/data/014267be_varied_sm/analysis/results/00000063.xml" output_dir="/home/kyager/BNL/MachineLearning/synthetic/data/014267be_varied_sm/analysis/results" runtime="0.3603942394256592" save_timestamp="1453215969.805122" start_timestamp="1453215969.4446254">
    <result name="sample.type.mesostructure" value="True"/>
    <result name="image.measured.sample" value="True"/>
    <result name="sample.type.single crystal" value="True"/>
    <result name="instrumental.beamstop.linear beamstop" value="True"/>
    <result name="experiment.measurement.TSAXS" value="True"/>
    <result name="image.general.strong scattering" value="True"/>
    <result name="features.other.coherent speckle" value="True"/>
    <result name="instrumental.detector.Conceptual256" value="True"/>
    <result name="features.main.halo: isotropic" value="True"/>
    <result name="sample.special.meso lattice SC" value="True"/>
  </protocol>
  <protocol end_timestamp="1453215969.8052924" name="calibration_generated" outfile="/home/kyager/BNL/MachineLearning/synthetic/data/014267be_varied_sm/analysis/results/00000063.xml" output_dir="/home/kyager/BNL/MachineLearning/synthetic/data/014267be_varied_sm/analysis/results" runtime="9.078535079956055" save_timestamp="1453215969.8055046" start_timestamp="1453215960.7267573">
    <result name="distance_m" value="0.594375"/>
    <result name="pixel_um" value="75.0"/>
    <result name="image_width" value="256"/>
    <result name="image_height" value="256"/>
    <result name="x0" value="14.287266262655312"/>
    <result name="dq" value="0.000569018354057"/>
    <result name="k_Ainv" value="4.50947048282922"/>
    <result name="wavelength_A" value="1.3933310642799788"/>
    <result name="y0" value="217.80449526053002"/>
    <result name="energy_keV" value="8.898399999999999"/>
  </protocol>
</DataFile>
