<DataFile name="00000031">
  <protocol end_timestamp="1453216766.5160415" name="tag_generated" outfile="/home/kyager/BNL/MachineLearning/synthetic/data/0da2b12e_varied_sm/analysis/results/00000031.xml" output_dir="/home/kyager/BNL/MachineLearning/synthetic/data/0da2b12e_varied_sm/analysis/results" runtime="0.12928557395935059" save_timestamp="1453216766.5161257" start_timestamp="1453216766.386756">
    <result name="experiment.measurement.TSAXS" value="True"/>
    <result name="features.main.diffuse high-q: isotropic" value="True"/>
    <result name="features.other.background" value="True"/>
    <result name="features.variations.higher orders: 4" value="True"/>
    <result name="sample.type.large grains" value="True"/>
    <result name="image.general.structure factor" value="True"/>
    <result name="instrumental.beamstop.linear beamstop" value="True"/>
    <result name="features.variations.ring: width: sharp" value="True"/>
    <result name="image.measured.sample" value="True"/>
    <result name="instrumental.detector.Conceptual256" value="True"/>
    <result name="sample.lattice.symmetry: 6" value="True"/>
    <result name="features.main.ring: spotted" value="True"/>
    <result name="image.general.strong scattering" value="True"/>
  </protocol>
  <protocol end_timestamp="1453216766.516323" name="calibration_generated" outfile="/home/kyager/BNL/MachineLearning/synthetic/data/0da2b12e_varied_sm/analysis/results/00000031.xml" output_dir="/home/kyager/BNL/MachineLearning/synthetic/data/0da2b12e_varied_sm/analysis/results" runtime="8.621522188186646" save_timestamp="1453216766.5165386" start_timestamp="1453216757.894801">
    <result name="image_width" value="256"/>
    <result name="x0" value="36.034567974555145"/>
    <result name="distance_m" value="0.594375"/>
    <result name="y0" value="179.42206317582662"/>
    <result name="pixel_um" value="75.0"/>
    <result name="k_Ainv" value="4.50947048282922"/>
    <result name="dq" value="0.000569018354057"/>
    <result name="wavelength_A" value="1.3933310642799788"/>
    <result name="image_height" value="256"/>
    <result name="energy_keV" value="8.898399999999999"/>
  </protocol>
</DataFile>
