<DataFile name="0000002f">
  <protocol end_timestamp="1453216766.3578224" name="tag_generated" outfile="/home/kyager/BNL/MachineLearning/synthetic/data/0da2b12e_varied_sm/analysis/results/0000002f.xml" output_dir="/home/kyager/BNL/MachineLearning/synthetic/data/0da2b12e_varied_sm/analysis/results" runtime="0.07281088829040527" save_timestamp="1453216766.3578691" start_timestamp="1453216766.2850115">
    <result name="experiment.measurement.TSAXS" value="True"/>
    <result name="features.main.ring: anisotropic" value="True"/>
    <result name="features.variations.ring: orientation distribution: sharp" value="True"/>
    <result name="features.variations.higher orders: 1" value="True"/>
    <result name="features.variations.ring: orientation distribution: broad" value="True"/>
    <result name="features.variations.symmetry ring: 2" value="True"/>
    <result name="features.main.ring: oriented other" value="True"/>
    <result name="instrumental.beamstop.linear beamstop" value="True"/>
    <result name="features.main.ring: oriented IP" value="True"/>
    <result name="instrumental.detector.Conceptual256" value="True"/>
    <result name="image.measured.sample" value="True"/>
    <result name="image.general.strong scattering" value="True"/>
    <result name="features.variations.ring: width: intermediate" value="True"/>
  </protocol>
  <protocol end_timestamp="1453216766.3580086" name="calibration_generated" outfile="/home/kyager/BNL/MachineLearning/synthetic/data/0da2b12e_varied_sm/analysis/results/0000002f.xml" output_dir="/home/kyager/BNL/MachineLearning/synthetic/data/0da2b12e_varied_sm/analysis/results" runtime="8.463207721710205" save_timestamp="1453216766.3581421" start_timestamp="1453216757.894801">
    <result name="image_width" value="256"/>
    <result name="x0" value="36.034567974555145"/>
    <result name="distance_m" value="0.594375"/>
    <result name="y0" value="179.42206317582662"/>
    <result name="pixel_um" value="75.0"/>
    <result name="k_Ainv" value="4.50947048282922"/>
    <result name="dq" value="0.000569018354057"/>
    <result name="wavelength_A" value="1.3933310642799788"/>
    <result name="image_height" value="256"/>
    <result name="energy_keV" value="8.898399999999999"/>
  </protocol>
</DataFile>
