<DataFile name="000000b9">
  <protocol end_timestamp="1453216789.9749708" name="tag_generated" outfile="/home/kyager/BNL/MachineLearning/synthetic/data/0da2b12e_varied_sm/analysis/results/000000b9.xml" output_dir="/home/kyager/BNL/MachineLearning/synthetic/data/0da2b12e_varied_sm/analysis/results" runtime="0.2249143123626709" save_timestamp="1453216789.9750862" start_timestamp="1453216789.7500565">
    <result name="experiment.measurement.TSAXS" value="True"/>
    <result name="sample.type.single crystal" value="True"/>
    <result name="instrumental.beamstop.linear beamstop" value="True"/>
    <result name="instrumental.detector.Conceptual256" value="True"/>
    <result name="image.measured.sample" value="True"/>
    <result name="image.general.strong scattering" value="True"/>
    <result name="sample.type.mesostructure" value="True"/>
    <result name="sample.special.meso lattice SC" value="True"/>
  </protocol>
  <protocol end_timestamp="1453216789.9752803" name="calibration_generated" outfile="/home/kyager/BNL/MachineLearning/synthetic/data/0da2b12e_varied_sm/analysis/results/000000b9.xml" output_dir="/home/kyager/BNL/MachineLearning/synthetic/data/0da2b12e_varied_sm/analysis/results" runtime="32.08047938346863" save_timestamp="1453216789.9755526" start_timestamp="1453216757.894801">
    <result name="image_width" value="256"/>
    <result name="x0" value="36.034567974555145"/>
    <result name="distance_m" value="0.594375"/>
    <result name="y0" value="179.42206317582662"/>
    <result name="pixel_um" value="75.0"/>
    <result name="k_Ainv" value="4.50947048282922"/>
    <result name="dq" value="0.000569018354057"/>
    <result name="wavelength_A" value="1.3933310642799788"/>
    <result name="image_height" value="256"/>
    <result name="energy_keV" value="8.898399999999999"/>
  </protocol>
</DataFile>
